﻿{
  "Group": "Widgets",
  "FriendlyName": "nopWidget",
  "SystemName": "Widgets.nopWidget",
  "Version": "1.00",
  "SupportedVersions": [ "4.30" ],
  "Author": "nopStation team, Roslin Mahmud",
  "DisplayOrder": 1,
  "FileName": "Nop.Plugin.nopWidget.dll",
  "Description": "How widget work in nopCommerce"
}